[
    {
        "amount": 250.00,
        "date": "01/07/2018",
        "account": "My Current Account",
        "type": "Direct Debit",
        "description": "Gas and Electric"
    },
    {
        "amount": 3.99,
        "date": "25/06/2018",
        "account": "My Current Account",
        "type": "Debit Card Transaction",
        "description": "Lunch"
    },
    {
        "amount": 9.99,
        "date": "24/06/2018",
        "account": "My Current Account",
        "type": "Debit Card Transaction",
        "description": "New hat"
    },
    {
        "amount": 20.00,
        "date": "23/06/2018",
        "account": "My Current Account",
        "type": "Transfer",
        "description": "Splitting dinner with Kate"
    },
    {
        "amount": 64.54,
        "date": "23/06/2018",
        "account": "My Current Account",
        "type": "Debit Card Transaction",
        "description": "Weekly groceries"
    },
    {
        "amount": 200.00,
        "date": "20/06/2018",
        "account": "My Current Account",
        "type": "Transfer",
        "description": "Monthly savings"
    },
    {
        "amount": 10.00,
        "date": "19/06/2018",
        "account": "My Current Account",
        "type": "ATM Withdrawal",
        "description": ""
    },
    {
        "amount": 45.34,
        "date": "15/06/2018",
        "account": "My Current Account",
        "type": "Debit Card Transaction",
        "description": "Theatre Tickets"
    }
]